{
  "provisioners": [
    {
        "type": "shell",
        "execute_command": "echo 'vagrant' | {{ .Vars }} sudo -E -S sh '{{ .Path }}'",
        "inline": [
            "sleep 30",
            "apt-add-repository ppa:rquillo/ansible",
            "/usr/bin/apt-get update",
            "/usr/bin/apt-get -y install ansible"
        ]
    },
    {
      "type": "shell",
      "execute_command": "echo 'vagrant'|sudo -S sh '{{.Path}}'",
      "override": {
        "virtualbox-iso": {
          "scripts": [
            "scripts/base.sh",
            "scripts/docker.sh",
            "scripts/vagrant.sh",
            "scripts/virtualbox-guest-additions.sh"
          ]
        }
      }
    },
    {
      "type": "shell",
      "execute_command": "echo 'vagrant'|sudo -S sh '{{.Path}}'",
      "override": {
        "virtualbox-iso": {
          "scripts": [
            "scripts/cleanup.sh",
            "scripts/zerodisk.sh"
          ]
        }
      }
    }
  ],
  "post-processors": [
    {
      "type": "vagrant",
      "override": {
        "virtualbox": {
          "output": "vibhu-base-virtualbox.box"
        }
      }
    }
  ],
  "builders": [
    {
      "type": "virtualbox-iso",
      "boot_command": [
        "<esc><wait>",
        "<esc><wait>",
        "<enter><wait>",
        "/install/vmlinuz<wait>",
        " auto<wait>",
        " console-setup/ask_detect=false<wait>",
        " console-setup/layoutcode=us<wait>",
        " console-setup/modelcode=pc105<wait>",
        " debconf/frontend=noninteractive<wait>",
        " debian-installer=en_US<wait>",
        " fb=false<wait>",
        " initrd=/install/initrd.gz<wait>",
        " kbd-chooser/method=us<wait>",
        " keyboard-configuration/layout=USA<wait>",
        " keyboard-configuration/variant=USA<wait>",
        " locale=en_US<wait>",
        " netcfg/get_hostname=ubuntu-1404<wait>",
        " netcfg/get_domain=vagrantup.com<wait>",
        " noapic<wait>",
        " preseed/url=http://{{ .HTTPIP }}:{{ .HTTPPort }}/preseed.cfg<wait>",
        " -- <wait>",
        "<enter><wait>"
      ],
      "boot_wait": "10s",
      "disk_size": 10240,
      "guest_os_type": "Ubuntu_64",
      "http_directory": "http",
      "iso_checksum": "83aabd8dcf1e8f469f3c72fff2375195",
      "iso_checksum_type": "md5",
      "iso_url": "http://releases.ubuntu.com/14.04/ubuntu-14.04.2-server-amd64.iso",
      "ssh_username": "vagrant",
      "ssh_password": "vagrant",
      "ssh_port": 22,
      "ssh_wait_timeout": "10000s",
      "shutdown_command": "echo 'shutdown -P now' > /tmp/shutdown.sh; echo 'vagrant'|sudo -S sh '/tmp/shutdown.sh'",
      "vboxmanage": [
        [ "modifyvm", "{{.Name}}", "--memory", "4096" ],
        [ "modifyvm", "{{.Name}}", "--cpus", "2" ]
      ]
    }
  ]
}
